Análise de Visualização - Spotify 2023
…
Média de Streams por Ano

Agrupamento por ano e cálculo da média de streams:

spotify %>%
  group_by(released_year) %>%
  summarise(media_streams = mean(streams, na.rm = TRUE)) %>%
  arrange(desc(media_streams))

## # A tibble: 50 × 2
##    released_year media_streams
##            <dbl>         <dbl>
##  1          1975   2103052676 
##  2          1983   1593270737 
##  3          2003   1584021370.
##  4          1987   1553497987 
##  5          2018   1503052239 
##  6          1994   1449779435 
##  7          2002   1446620470.
##  8          2017   1367723437.
##  9          2012   1341534279.
## 10          1998   1284942608 
## # ℹ 40 more rows
…
